<?xml version="1.0" encoding="UTF-8" standalone="no"?>
<svg width="555px" height="474px" viewBox="0 0 555 474" version="1.1" xmlns="http://www.w3.org/2000/svg" xmlns:xlink="http://www.w3.org/1999/xlink">
    <!-- Generator: sketchtool 3.7 (28169) - http://www.bohemiancoding.com/sketch -->
    <title>Group 3</title>
    <desc>Created with sketchtool.</desc>
    <defs>
        <filter x="-50%" y="-50%" width="200%" height="200%" filterUnits="objectBoundingBox" id="filter-1">
            <feGaussianBlur stdDeviation="19.8661535" in="SourceGraphic"></feGaussianBlur>
        </filter>
    </defs>
    <g id="first-time-in-the-app" stroke="none" stroke-width="1" fill="none" fill-rule="evenodd">
        <g id="personal" transform="translate(-98.000000, -289.000000)">
            <g id="Group-3" transform="translate(140.000000, 288.000000)">
                <g id="Group-2" transform="translate(67.000000, 0.000000)">
                    <path d="M300.63743,367.729264 C300.63743,288.831535 239.646835,224.872744 164.408077,224.872744 C89.1693181,224.872744 28.1787233,288.831535 28.1787233,367.729264 C28.1787233,371.382045 28.3489733,374.987995 28.6072836,378.57053 L300.20887,378.57053 C300.46718,374.987995 300.63743,371.382045 300.63743,367.729264 Z" id="Fill-1" stroke="#E9E9E9" fill="#F5F5F5"></path>
                    <path d="M93.0897647,272.426216 C93.0897647,272.426216 140.507325,374.55774 165.164222,374.55774 C189.821118,374.55774 235.348316,264.863086 235.348316,264.863086 L93.0897647,272.426216 Z" id="Fill-3" fill="#1D71B7"></path>
                    <path d="M154.291704,292.570953 C154.291704,292.570953 152.683135,306.403519 158.51273,309.207497 C164.342325,312.017328 171.780489,311.613415 174.193342,310.00947 C176.606196,308.405524 177.610084,292.371923 177.610084,292.371923 L154.291704,292.570953 Z" id="Fill-5" fill="#FFC86D"></path>
                    <path d="M160.523441,306.402348 L146.850605,362.733617 C146.850605,362.733617 156.901226,374.552471 165.167157,374.558325 C174.395881,374.558325 183.841821,360.725759 183.841821,360.725759 L170.773666,307.005291 L160.523441,306.402348 Z" id="Fill-7" fill="#FFC86D"></path>
                    <polygon id="Fill-19" fill="#F0F0F0" points="56.2881724 361.414167 99.6843103 361.414167 99.6843103 354.641302 56.2881724 354.641302"></polygon>
                    <polygon id="Fill-21" fill="#F8F8F8" points="58.5542586 378.343402 97.799819 378.343402 97.799819 361.414167 58.5542586 361.414167"></polygon>
                    <path d="M318.112125,197.00624 C322.456435,184.186383 324.816453,170.593823 324.816453,156.497835 C324.816453,79.4967423 255.037435,17.0716511 168.961384,17.0716511 C82.8853319,17.0716511 13.1121853,79.4967423 13.1121853,156.497835 C13.1121853,170.318694 15.3900129,183.65954 19.5758147,196.262805 C8.39215086,198.645308 0.00293534483,208.54411 0.00293534483,220.403941 C0.00293534483,234.043332 11.0867974,245.095336 24.7596336,245.095336 C31.6459526,245.095336 37.8688836,242.291358 42.3599612,237.766359 C70.644944,272.97706 116.794435,295.929872 168.961384,295.929872 C220.371013,295.929872 265.951047,273.650249 294.335832,239.311766 C298.644918,242.917717 304.186849,245.095336 310.251272,245.095336 C323.924108,245.095336 335.013841,234.043332 335.013841,220.403941 C335.013841,209.50999 327.927918,200.284376 318.112125,197.00624" id="Fill-22" fill="#F3D1BB"></path>
                    <path d="M119.439181,163.761835 C119.439181,146.11258 105.091216,131.811708 87.3969569,131.811708 C69.6968276,131.811708 55.3488621,146.11258 55.3488621,163.761835 C55.3488621,181.411089 69.6968276,195.711961 87.3969569,195.711961 C105.091216,195.711961 119.439181,181.411089 119.439181,163.761835" id="Fill-23" fill="#FFFFFF"></path>
                    <path d="M220.046364,163.761835 C220.046364,146.11258 234.394329,131.811708 252.088588,131.811708 C269.788717,131.811708 284.136683,146.11258 284.136683,163.761835 C284.136683,181.411089 269.788717,195.711961 252.088588,195.711961 C234.394329,195.711961 220.046364,181.411089 220.046364,163.761835" id="Fill-24" fill="#FFFFFF"></path>
                    <path d="M101.95979,176.833405 C101.95979,168.011705 94.7858069,160.858342 85.9386776,160.858342 C77.0915483,160.858342 69.9175655,168.011705 69.9175655,176.833405 C69.9175655,185.655106 77.0915483,192.808468 85.9386776,192.808468 C94.7858069,192.808468 101.95979,185.655106 101.95979,176.833405" id="Fill-25" fill="#000000"></path>
                    <path d="M266.552793,176.833405 C266.552793,168.011705 259.37881,160.858342 250.531681,160.858342 C241.684552,160.858342 234.510569,168.011705 234.510569,176.833405 C234.510569,185.655106 241.684552,192.808468 250.531681,192.808468 C259.37881,192.808468 266.552793,185.655106 266.552793,176.833405" id="Fill-26" fill="#000000"></path>
                    <path d="M184.84336,209.74824 C184.84336,209.74824 183.610516,195.535176 168.246921,195.535176 C149.695541,195.535176 149.76599,209.320912 149.76599,209.320912 C149.76599,209.320912 166.327205,191.712634 184.84336,209.74824" id="Fill-27" fill="#E8C0A8"></path>
                    <path d="M128.741289,255.192583 C128.741289,255.192583 141.680289,267.713895 164.059358,268.117808 C192.203444,268.621236 206.29897,252.599342 206.29897,252.599342 C206.29897,252.599342 184.054927,264.459173 164.881254,263.680616 C145.707582,262.902058 128.741289,255.192583 128.741289,255.192583" id="Fill-28" fill="#E8C0A8"></path>
                    <path d="M221.873909,78.5255943 C221.873909,78.5255943 216.120634,110.42889 181.61272,126.919089 C147.098935,143.403434 129.486866,133.012911 129.486866,133.012911 C129.486866,133.012911 147.098935,127.990337 156.445073,120.46233 C165.797082,112.934323 166.155194,111.143056 166.155194,111.143056 C166.155194,111.143056 140.083461,130.876269 112.232909,136.952529 C77.719125,144.480536 63.6999181,136.595446 63.6999181,136.595446 C63.6999181,136.595446 85.474306,134.69881 109.714384,122.616534 C120.498841,117.236878 125.894004,108.994705 125.894004,108.994705 C125.894004,108.994705 92.8185388,126.556152 43.9274353,133.727077 C14.3450302,138.064754 20.2039784,139.820899 20.2039784,139.820899 C20.2039784,139.820899 17.3273405,152.365626 20.2039784,169.212908 C23.0806164,186.06019 26.6734784,195.379464 26.6734784,195.379464 C26.6734784,195.379464 20.9202026,192.154012 18.4075474,184.983087 C15.8890216,177.818017 24.1549526,200.396184 24.1549526,200.396184 C24.1549526,200.396184 18.7656595,198.967853 15.1727974,191.796929 C11.5740647,184.626005 6.90099569,157.745283 13.0123836,135.161262 C19.1237716,112.57724 24.1549526,104.335068 24.1549526,104.335068 C24.1549526,104.335068 16.2471336,112.57724 13.0123836,118.671063 C9.77763362,124.764885 7.98120259,128.34742 7.98120259,128.34742 C7.98120259,128.34742 11.9321767,110.42889 25.9572543,89.9932193 C39.9764612,69.5634023 69.453194,38.7372086 102.164677,27.2695836 C134.876159,15.7961047 145.302504,15.7961047 145.302504,15.7961047 C145.302504,15.7961047 136.678461,10.7793846 129.844978,10.0593653 C123.017366,9.34519973 119.782616,9.70228249 119.782616,9.70228249 C119.782616,9.70228249 130.203091,6.83391278 137.752797,7.91101487 C145.302504,8.98811697 162.198349,17.2302895 162.198349,17.2302895 C162.198349,17.2302895 166.155194,10.7793846 170.828263,7.55393211 C175.501332,4.32847964 184.125375,1.46010992 189.878651,1.09717334 C195.631927,0.740090581 203.181634,1.46010992 203.181634,1.46010992 C203.181634,1.46010992 195.631927,4.32847964 190.236763,9.34519973 L184.84747,14.3619198 C184.84747,14.3619198 192.755289,9.70228249 207.132608,9.70228249 C221.515797,9.70228249 230.503823,12.5706522 238.769754,15.7961047 C247.035685,19.0215572 224.028453,19.7415765 224.028453,19.7415765 C224.028453,19.7415765 243.442823,24.7582966 259.980556,34.7917368 C276.518289,44.8310308 302.038177,64.1895995 317.495703,90.3561559 C332.953228,116.522712 332.953228,118.671063 332.953228,118.671063 C332.953228,118.671063 323.248978,107.56052 318.217797,102.180864 C313.180746,96.8070608 324.329185,115.44561 326.483728,139.106733 C328.638272,162.762003 327.922047,171.367112 325.767504,182.477654 C323.607091,193.588197 317.137591,203.627491 317.137591,203.627491 C317.137591,203.627491 321.452547,191.796929 321.452547,181.400552 C321.452547,171.004175 320.372341,166.344538 320.372341,166.344538 C320.372341,166.344538 319.656116,175.30673 318.217797,179.966367 C316.779478,184.626005 314.983047,189.285642 314.983047,189.285642 C314.983047,189.285642 316.779478,160.250716 314.260953,150.217276 C311.742427,140.177982 287.660858,109.351788 287.660858,109.351788 C287.660858,109.351788 289.815401,117.593961 290.173513,121.896515 C290.537496,126.19907 289.099177,130.144542 289.099177,130.144542 C289.099177,130.144542 269.684806,108.637622 251.708754,99.6754306 C233.180858,90.4381093 221.873909,78.5255943 221.873909,78.5255943" id="Fill-29" fill="#764533"></path>
                    <path d="M141.571681,165.378073 C141.571681,139.820314 118.088922,119.097806 89.1229397,119.097806 C60.1510862,119.097806 36.6683276,139.820314 36.6683276,165.378073 C36.6683276,190.935833 60.1510862,211.65834 89.1229397,211.65834 C118.088922,211.65834 141.571681,190.935833 141.571681,165.378073" id="Fill-30" fill="#F6F6F6" opacity="0.453999534"></path>
                    <path d="M89.1188302,125.078649 C63.5050112,125.078649 42.6640629,143.155232 42.6640629,165.376317 C42.6640629,187.597402 63.5050112,205.679838 89.1188302,205.679838 C114.732649,205.679838 135.573597,187.597402 135.573597,165.376317 C135.573597,143.155232 114.732649,125.078649 89.1188302,125.078649 M89.1188302,217.639184 C56.888744,217.639184 30.670244,194.194652 30.670244,165.376317 C30.670244,136.557982 56.888744,113.119304 89.1188302,113.119304 C121.348916,113.119304 147.567416,136.557982 147.567416,165.376317 C147.567416,194.194652 121.348916,217.639184 89.1188302,217.639184" id="Fill-31" fill="#575756"></path>
                    <path d="M249.873577,119.097806 C220.901723,119.097806 197.418965,139.820314 197.418965,165.378073 C197.418965,190.935833 220.901723,211.65834 249.873577,211.65834 C278.839559,211.65834 302.322318,190.935833 302.322318,165.378073 C302.322318,139.820314 278.839559,119.097806 249.873577,119.097806 Z" id="Fill-32" fill="#F6F6F6" opacity="0.45"></path>
                    <path d="M249.870054,125.078649 C224.256235,125.078649 203.415287,143.155232 203.415287,165.376317 C203.415287,187.597402 224.256235,205.679838 249.870054,205.679838 C275.483873,205.679838 296.324822,187.597402 296.324822,165.376317 C296.324822,143.155232 275.483873,125.078649 249.870054,125.078649 M249.870054,217.639184 C217.639968,217.639184 191.421468,194.194652 191.421468,165.376317 C191.421468,136.557982 217.639968,113.119304 249.870054,113.119304 C282.100141,113.119304 308.318641,136.557982 308.318641,165.376317 C308.318641,194.194652 282.100141,217.639184 249.870054,217.639184" id="Fill-33" fill="#575756"></path>
                    <path d="M141.197131,177.00258 C139.383088,177.00258 137.586657,176.183046 136.406648,174.631785 C134.410614,171.997568 134.933105,168.245272 137.574916,166.249121 C149.063855,157.585474 176.521071,145.918819 198.21914,163.778811 C200.77289,165.880331 201.136872,169.650188 199.023424,172.196598 C196.921717,174.743008 193.140993,175.105944 190.581372,172.99857 C170.691476,156.631302 145.071786,175.597665 144.813476,175.790841 C143.727398,176.610375 142.459329,177.00258 141.197131,177.00258" id="Fill-34" fill="#575756"></path>
                    <path d="M15.1739716,197.777187 C13.3423164,197.777187 11.5400147,196.945945 10.360006,195.371269 C8.38158362,192.71949 8.92755776,188.973048 11.5869802,187.000312 L31.9524026,171.868199 C34.6059543,169.901317 38.3631957,170.439868 40.3416181,173.091646 C42.3259112,175.743425 41.7740664,179.489867 39.1205147,181.462603 L18.7550922,196.588863 C17.6748853,197.390835 16.4244284,197.777187 15.1739716,197.777187" id="Fill-35" fill="#575756"></path>
                    <path d="M321.188953,200.331207 C319.738893,200.331207 318.282962,199.810217 317.132307,198.756531 L298.645505,181.821442 C296.203298,179.591138 296.04479,175.803719 298.281522,173.374385 C300.524126,170.939198 304.316591,170.775291 306.758798,173.011449 L325.2456,189.946538 C327.687807,192.176842 327.846316,195.96426 325.609583,198.393594 C324.423703,199.681433 322.809264,200.331207 321.188953,200.331207" id="Fill-36" fill="#575756"></path>
                </g>
                <ellipse id="Oval-85" fill="#4E94E3" opacity="0.39738806" filter="url(#filter-1)" cx="235.5" cy="406" rx="235.5" ry="13"></ellipse>
            </g>
        </g>
    </g>
</svg>